type: MALTA2 
sample: W18R9 
SC_ICASN: 10 
SC_IBIAS: 43 
SC_ITHR: 110 
SC_IDB: 120 
SC_VCASN: 110 
SC_VRESET_P: 29 
SC_VRESET_D: 65 
SC_VCLIP: 125 
TAP_FROM_TXT: /home/sbmuser/MaltaSW/Malta2/Results_TapCalib//W18R9/longCable_doubleChip_calib_run//calib_15.txt

MASK_DOUBLE_COLUMNS:0,50 
MASK_DOUBLE_COLUMNS: 50,206 
 
MASK_PIXEL: 485, 312 # entries 7844 rate 78.44 kHz word 	|000000000000|000000|0000|000|0|11110010|000|1|10011|0000000100000000|1| 
MASK_PIXEL: 491, 449 # entries 5957 rate 59.57 kHz word 	|000000000000|000000|0000|000|0|11110101|000|0|11100|0000001000000000|1| 
MASK_PIXEL: 467, 509 # entries 1173 rate 11.73 kHz word 	|000000000000|000000|0000|000|0|11101001|000|1|11111|0010000000000000|1| 
 
MASK_PIXEL: 499, 435 #entries   14110 
MASK_PIXEL: 464, 373 #entries   14719 
 
MASK_PIXEL: 491, 302 #entries    1122 
MASK_PIXEL: 459, 429 #entries    1129 
MASK_PIXEL: 414, 431 #entries    1488 
MASK_PIXEL: 462, 447 #entries    1680 
MASK_PIXEL: 474, 355 #entries    1966 
MASK_PIXEL: 485, 488 #entries    1993 
MASK_PIXEL: 461, 378 #entries    2277 
MASK_PIXEL: 488, 292 #entries    2686 
MASK_PIXEL: 477, 329 #entries    2862 
MASK_PIXEL: 464, 440 #entries    3037 
MASK_PIXEL: 449, 389 #entries    3601 
 
MASK_PIXEL: 428, 319 #entries    3174 
MASK_PIXEL: 507, 404 #entries    3267 
MASK_PIXEL: 466, 329 #entries    3582 
MASK_PIXEL: 476, 328 #entries    4073 
MASK_PIXEL: 450, 453 #entries    4085 
MASK_PIXEL: 426, 386 #entries    4106 
MASK_PIXEL: 453, 379 #entries    4765 
MASK_PIXEL: 456, 294 #entries    4893 
MASK_PIXEL: 465, 461 #entries    8932 
MASK_PIXEL: 432, 408 #entries   10287 
MASK_PIXEL: 509, 386 #entries   11477 
MASK_PIXEL: 439, 373 #entries   12813 
 
MASK_PIXEL: 455, 347 #entries     537 
MASK_PIXEL: 453, 311 #entries     557 
MASK_PIXEL: 471, 361 #entries     622 
 
MASK_PIXEL: 501, 348 #entries     485 
MASK_PIXEL: 501, 300 #entries     513 
MASK_PIXEL: 510, 351 #entries     517 
MASK_PIXEL: 460, 400 #entries     520 
MASK_PIXEL: 495, 318 #entries     543 
MASK_PIXEL: 456, 341 #entries     568 
MASK_PIXEL: 507, 483 #entries     627 
MASK_PIXEL: 495, 433 #entries     696 
MASK_PIXEL: 454, 333 #entries     729 
MASK_PIXEL: 438, 314 #entries     701 
MASK_PIXEL: 421, 327 #entries     713 
MASK_PIXEL: 457, 335 #entries     720 
MASK_PIXEL: 509, 424 #entries     768 
MASK_PIXEL: 465, 474 #entries     769 
MASK_PIXEL: 414, 416 #entries     794 
MASK_PIXEL: 465, 298 #entries     819 
 
