type: MALTA2 
sample: W18R14 
SC_ICASN: 2 
SC_IBIAS: 43 
SC_ITHR: 15 
SC_IDB: 120 
SC_VCASN: 110 
SC_VRESET_P: 29 
SC_VRESET_D: 65 
SC_VCLIP: 125 
TAP_FROM_TXT: /home/sbmuser/MaltaSW/Malta2/Results_TapCalib//W18R14/longCable_doubleChip_calib_run//calib_15.txt

MASK_DOUBLE_COLUMNS:128,256 
MASK_PIXEL: 96, 424 # entries 167 rate 0.517701 kHz word 	 
