include: configs/DUT/TelescopePlanes.txt

[PLANE7]
address: udp://ep-ade-gw-02:50007
type: MALTA2
sample: W18R10
SC_ICASN: 2
SC_IBIAS: 20
SC_ITHR: 125
SC_IDB: 125
SC_VCASN: 110
SC_VRESET_P: 29
SC_VRESET_D: 65
SC_VCLIP: 125
TAP_FROM_TXT: /home/sbmuser/MaltaSW/Malta2/Results_TapCalib//W18R10/longCable_doubleChip_calib_run//calib_15.txt


MASK_DOUBLE_COLUMNS: 50,206
MASK_DOUBLE_COLUMNS: 206,256

MASK_PIXEL: 11, 372 # entries 23628 rate 236.28 kHz word 	|000000000000|000000|0000|000|0|00000101|000|0|10111|0001000000000000|1|
MASK_PIXEL: 36, 372 # entries 18798 rate 187.98 kHz word 	|000000000000|000000|0000|000|0|00010010|000|0|10111|0000000000010000|1|

MASK_PIXEL: 13, 457 # entries 81577 rate 815.77 kHz word 	|000000000000|000000|0000|000|0|00000110|000|1|11100|0000001000000000|1|
MASK_PIXEL: 8, 447 # entries 100505 rate 1005.05 kHz word 	|000000000000|000000|0000|000|0|00000100|000|1|11011|0000000010000000|1|
MASK_PIXEL: 6, 487 # entries 78792 rate 787.92 kHz word 	|000000000000|000000|0000|000|0|00000011|000|0|11110|0000000010000000|1|
MASK_PIXEL: 59, 321 # entries 43574 rate 435.74 kHz word 	|000000000000|000000|0000|000|0|00011101|000|0|10100|0000001000000000|1|

MASK_PIXEL:  18, 357 #entries    2070
MASK_PIXEL:  59, 411 #entries   36469

###########################################################################################################################

[PLANE8]
address: udp://ep-ade-gw-02:50008
type: MALTA2
sample: W18R9
SC_ICASN: 2
SC_IBIAS: 20
SC_ITHR: 125
SC_IDB: 125
SC_VCASN: 110
SC_VRESET_P: 29
SC_VRESET_D: 65
SC_VCLIP: 125
TAP_FROM_TXT: /home/sbmuser/MaltaSW/Malta2/Results_TapCalib/W18R9/longCable_doubleChip_calib_run//calib_15.txt

MASK_DOUBLE_COLUMNS: 50,206
MASK_DOUBLE_COLUMNS: 206,255

MASK_PIXEL: 4, 314 # entries 43008 rate 430.08 kHz word 	|000000000000|000000|0000|000|0|00000010|000|1|10011|0000000000000100|1|
MASK_PIXEL: 97, 289 # entries 248794 rate 2487.94 kHz word 	|000000000000|000000|0000|000|0|00110000|000|0|10010|0000001000000000|1|
MASK_PIXEL: 95, 333 # entries 110294 rate 1102.94 kHz word 	|000000000000|000000|0000|000|0|00101111|000|1|10100|0010000000000000|1|
MASK_PIXEL: 10, 352 # entries 20942 rate 209.42 kHz word 	|000000000000|000000|0000|000|0|00000101|000|0|10110|0000000000000001|1|
MASK_PIXEL: 26, 364 # entries 14620 rate 146.2 kHz word 	|000000000000|000000|0000|000|0|00001101|000|1|10110|0000000000010000|1|
MASK_PIXEL:  10, 308 #entries     544
MASK_PIXEL:   2, 303 #entries    7681
