include: configs/DUT/TelescopePlanes.txt

[PLANE7]
address: udp://ep-ade-gw-02:50007
type: MALTA2
sample: W15R0
SC_ICASN: 10
SC_IBIAS: 43
SC_ITHR: 18
SC_IDB: 120
SC_VCASN: 110
SC_VRESET_P: 29
SC_VRESET_D: 65
SC_VCLIP: 125
TAP_FROM_TXT: /home/sbmuser/MaltaSW/Malta2/Results_TapCalib//W15R0/longCable_doubleChip_calib_run//calib_15.txt
MASK_PIXEL: 326, 383 # entries 279703 rate 11188.1 kHz word     |000000000000|000000|0000|000|0|10100011|000|1|10111|0000000010000000|1|
MASK_PIXEL: 509, 317 # entries 264724 rate 10589 kHz word       |000000000000|000000|0000|000|0|11111110|000|1|10011|0010000000000000|1|
MASK_PIXEL: 69, 384 # entries 247413 rate 9896.52 kHz word      |000000000000|000000|0000|000|0|00100010|000|0|11000|0000000100000000|1|
MASK_PIXEL: 40, 356 # entries 99639 rate 1992.78 kHz word       |000000000000|000000|0000|000|0|00010100|000|0|10110|0000000000010000|1|
MASK_PIXEL: 183, 354 # entries 148091 rate 1480.91 kHz word     |000000000000|000000|0000|000|0|01011011|000|0|10110|0000010000000000|1|
MASK_PIXEL: 59, 388 # entries 107455 rate 1074.55 kHz word      |000000000000|000000|0000|000|0|00011101|000|0|11000|0001000000000000|1|
MASK_PIXEL: 89, 308 # entries 19415 rate 194.15 kHz word        |000000000000|000000|0000|000|0|00101100|000|0|10011|0001000000000000|1|
MASK_PIXEL: 53, 372 # entries 20045 rate 200.45 kHz word        |000000000000|000000|0000|000|0|00011010|000|0|10111|0001000000000000|1|
MASK_PIXEL: 80, 296 # entries 14231 rate 142.31 kHz word        |000000000000|000000|0000|000|0|00101000|000|1|10010|0000000000000001|1|
MASK_PIXEL: 38, 348 # entries 2069 rate 20.69 kHz word  |000000000000|000000|0000|000|0|00010011|000|1|10101|0000000000010000|1|
MASK_PIXEL: 37, 340 # entries 1706 rate 17.06 kHz word  |000000000000|000000|0000|000|0|00010010|000|0|10101|0001000000000000|1|
MASK_PIXEL: 36, 341 # entries 1259 rate 12.59 kHz word  |000000000000|000000|0000|000|0|00010010|000|0|10101|0000000000100000|1|
MASK_PIXEL: 355, 298 # entries 821 rate 8.21 kHz word   |000000000000|000000|0000|000|0|10110001|000|1|10010|0000010000000000|1|
MASK_PIXEL: 177, 399 # entries 751 rate 7.51 kHz word   |000000000000|000000|0000|000|0|01011000|000|1|11000|1000000000000000|1|
MASK_PIXEL: 74, 288 # entries 439 rate 4.39 kHz word    |000000000000|000000|0000|000|0|00100101|000|0|10010|0000000000000001|1|
MASK_PIXEL: 502, 303 # entries 204 rate 2.04 kHz word   |000000000000|000000|0000|000|0|11111011|000|1|10010|0000000010000000|1|
MASK_PIXEL: 393, 351 # entries 128 rate 1.28 kHz word   |000000000000|000000|0000|000|0|11000100|000|1|10101|1000000000000000|1|
MASK_PIXEL: 242, 492 # entries 635 rate 6.35 kHz word   |000000000000|000000|0000|000|0|01111001|000|1|11110|0000000000010000|1|
MASK_PIXEL: 5, 332 # entries 344 rate 3.44 kHz word     |000000000000|000000|0000|000|0|00000010|000|1|10100|0001000000000000|1|
MASK_PIXEL: 4, 332 # entries 516 rate 5.16 kHz word     |000000000000|000000|0000|000|0|00000010|000|1|10100|0000000000010000|1|
MASK_PIXEL: 507, 442 # entries 463 rate 4.63 kHz word   |000000000000|000000|0000|000|0|11111101|000|1|11011|0000010000000000|1|
MASK_PIXEL: 425, 297 # entries 185 rate 1.85 kHz word   |000000000000|000000|0000|000|0|11010100|000|1|10010|0000001000000000|1|
MASK_PIXEL: 393, 465 # entries 154 rate 1.54 kHz word   |000000000000|000000|0000|000|0|11000100|000|0|11101|0000001000000000|1|
MASK_PIXEL: 97, 408 # entries 111 rate 1.11 kHz word    |000000000000|000000|0000|000|0|00110000|000|1|11001|0000000100000000|1|
MASK_PIXEL: 77, 336 # entries 106 rate 1.06 kHz word    |000000000000|000000|0000|000|0|00100110|000|0|10101|0000000100000000|1|
MASK_PIXEL: 121, 403 # entries 75 rate 0.75 kHz word    |000000000000|000000|0000|000|0|00111100|000|0|11001|0000100000000000|1|
MASK_PIXEL: 393, 352 # entries 59 rate 0.59 kHz word    |000000000000|000000|0000|000|0|11000100|000|0|10110|0000000100000000|1|
MASK_PIXEL: 136, 300 # entries 63 rate 0.63 kHz word    |000000000000|000000|0000|000|0|01000100|000|1|10010|0000000000010000|1|
MASK_PIXEL: 392, 351 # entries 55 rate 0.55 kHz word    |000000000000|000000|0000|000|0|11000100|000|1|10101|0000000010000000|1|
MASK_PIXEL: 392, 352 # entries 74 rate 0.74 kHz word    |000000000000|000000|0000|000|0|11000100|000|0|10110|0000000000000001|1|
MASK_PIXEL: 199, 384 # entries 86 rate 0.86 kHz word    |000000000000|000000|0000|000|0|01100011|000|0|11000|0000000100000000|1|
MASK_PIXEL: 394, 351 # entries 41 rate 0.41 kHz word    |000000000000|000000|0000|000|0|11000101|000|1|10101|0000000010000000|1|
MASK_PIXEL: 393, 350 # entries 37 rate 0.37 kHz word    |000000000000|000000|0000|000|0|11000100|000|1|10101|0100000000000000|1|
MASK_PIXEL: 96, 481 # entries 31 rate 0.31 kHz word     |000000000000|000000|0000|000|0|00110000|000|0|11110|0000000000000010|1|
MASK_PIXEL: 27, 366 # entries 22 rate 0.22 kHz word     |000000000000|000000|0000|000|0|00001101|000|1|10110|0100000000000000|1|
MASK_PIXEL: 426, 298 # entries 27 rate 0.27 kHz word    |000000000000|000000|0000|000|0|11010101|000|1|10010|0000000000000100|1|
MASK_PIXEL: 204, 303 # entries 24 rate 0.24 kHz word    |000000000000|000000|0000|000|0|01100110|000|1|10010|0000000010000000|1|
MASK_PIXEL: 40, 296 # entries 20 rate 0.2 kHz word      |000000000000|000000|0000|000|0|00010100|000|1|10010|0000000000000001|1|
MASK_PIXEL: 334, 324 # entries 14 rate 0.14 kHz word    |000000000000|000000|0000|000|0|10100111|000|0|10100|0000000000010000|1|
MASK_PIXEL: 277, 314 # entries 109 rate 1.09 kHz word   |000000000000|000000|0000|000|0|10001010|000|1|10011|0000010000000000|1|
MASK_PIXEL: 379, 406 # entries 13 rate 0.13 kHz word    |000000000000|000000|0000|000|0|10111101|000|0|11001|0100000000000000|1|
MASK_PIXEL: 300, 409 # entries 18 rate 0.18 kHz word    |000000000000|000000|0000|000|0|10010110|000|1|11001|0000000000000010|1|
MASK_PIXEL: 486, 436 # entries 11 rate 0.11 kHz word    |000000000000|000000|0000|000|0|11110011|000|0|11011|0000000000010000|1|
MASK_PIXEL: 34, 460 # entries 18 rate 0.18 kHz word     |000000000000|000000|0000|000|0|00010001|000|1|11100|0000000000010000|1|
MASK_PIXEL: 198, 449 # entries 8 rate 0.08 kHz word     |000000000000|000000|0000|000|0|01100011|000|0|11100|0000000000000010|1|
MASK_PIXEL: 121, 387 #entries    8000
MASK_PIXEL: 120, 387 #entries    8326
MASK_PIXEL: 121, 386 #entries    8609
MASK_PIXEL: 480, 387 #entries   13540
MASK_PIXEL: 453, 310 #entries   31556
MASK_PIXEL: 453, 309 #entries   37497
MASK_PIXEL: 452, 310 #entries   50227
MASK_PIXEL: 452, 309 #entries   59200
MASK_PIXEL: 468, 473 #entries    9910
MASK_PIXEL: 406, 443 #entries   10229
MASK_PIXEL: 123, 339 #entries   14591
MASK_PIXEL:  42, 412 #entries   15726
MASK_PIXEL: 497, 334 #entries   16304
MASK_PIXEL: 387, 312 #entries   21618
MASK_PIXEL: 451, 309 #entries   21982
MASK_PIXEL: 362, 418 #entries     804
MASK_PIXEL: 322, 302 #entries     866
MASK_PIXEL: 370, 489 #entries    1218
MASK_PIXEL: 323, 302 #entries    1633
MASK_PIXEL:  65, 304 #entries    1710
MASK_PIXEL:  64, 299 #entries    1776
MASK_PIXEL: 127, 372 #entries   12831
MASK_PIXEL: 368, 358 #entries   14966
MASK_PIXEL:  65, 303 #entries   16451
MASK_PIXEL: 180, 324 #entries   23003
MASK_PIXEL: 451, 310 #entries   40035
MASK_PIXEL: 500, 416 #entries   10957
MASK_PIXEL: 127, 371 #entries   11235
MASK_PIXEL: 470, 507 #entries   11482
MASK_PIXEL:  64, 304 #entries   14894
MASK_PIXEL: 180, 325 #entries   23422
MASK_PIXEL: 175, 382 #entries   24267
MASK_PIXEL: 174, 382 #entries   26692
MASK_PIXEL:  22, 318 #entries   12441
MASK_PIXEL: 161, 493 #entries   17271
MASK_PIXEL: 496, 321 #entries   19124
MASK_PIXEL: 323, 352 #entries   20596
MASK_PIXEL: 161, 492 #entries   22440
MASK_PIXEL: 496, 320 #entries   37780
MASK_PIXEL: 496, 321 #entries   10025
MASK_PIXEL: 161, 493 #entries   13782
MASK_PIXEL: 161, 492 #entries   17019
MASK_PIXEL: 496, 320 #entries   20029
MASK_PIXEL: 323, 351 #entries   14056
MASK_PIXEL: 194, 439 #entries   15738
MASK_PIXEL: 495, 321 #entries   19159
###########################################################################################################################

[PLANE8]
address: udp://ep-ade-gw-02:50008
type: MALTA2
sample: W15R19
SC_ICASN: 10
SC_IBIAS: 43
SC_ITHR: 18
SC_IDB: 120
SC_VCASN: 110
SC_VRESET_P: 29
SC_VRESET_D: 65
SC_VCLIP: 125
TAP_FROM_TXT: /home/sbmuser/MaltaSW/Malta2/Results_TapCalib/W15R19/longCable_doubleChip_calib_run//calib_15.txt
MASK_PIXEL:  12, 370 #entries    5834
MASK_PIXEL:  10, 368 #entries    6010
MASK_PIXEL:  10, 369 #entries    9106
MASK_PIXEL:  11, 370 #entries   10446
MASK_PIXEL:  30, 433 #entries   10291
MASK_PIXEL:  32, 432 #entries   10673
MASK_PIXEL:  12, 368 #entries   11261
MASK_PIXEL:  31, 435 #entries   13288
MASK_PIXEL:  31, 434 #entries   13297
