include: configs/DUT/TelescopePlanes.txt

[PLANE7]
address: udp://ep-ade-gw-02:50007
type: MALTA2
sample: W12R8
SC_ICASN: 2
SC_IBIAS: 43
SC_ITHR: 80
SC_IDB: 120
SC_VCASN: 110
SC_VRESET_P: 29
SC_VRESET_D: 65
SC_VCLIP: 125
TAP_FROM_TXT: /home/sbmuser/MaltaSW/Malta2/Results_TapCalib//W12R8/longCable_doubleChip_calib_run//calib_15.txt
MASK_DOUBLE_COLUMNS: 0, 128
#MASK_DOUBLE_COLUMNS: 200, 255
MASK_PIXEL: 314, 379 # entries 103872 rate 10387.2 kHz word 	|000000000000|000000|0000|000|0|10011101|000|1|10111|0000000000001000|1|
MASK_PIXEL: 346, 510 # entries 102323 rate 10232.3 kHz word 	|000000000000|000000|0000|000|0|10101101|000|1|11111|0000000001000000|1|
MASK_PIXEL: 314, 447 # entries 79898 rate 7989.8 kHz word 	|000000000000|000000|0000|000|0|10011101|000|1|11011|0000000010000000|1|
MASK_PIXEL: 343, 315 # entries 76313 rate 7631.3 kHz word 	|000000000000|000000|0000|000|0|10101011|000|1|10011|0000100000000000|1|
MASK_PIXEL: 316, 430 # entries 60609 rate 6060.9 kHz word 	|000000000000|000000|0000|000|0|10011110|000|1|11010|0000000001000000|1|
MASK_PIXEL: 332, 503 # entries 59534 rate 5953.4 kHz word 	|000000000000|000000|0000|000|0|10100110|000|0|11111|0000000010000000|1|
MASK_PIXEL: 392, 432 # entries 52524 rate 5252.4 kHz word 	|000000000000|000000|0000|000|0|11000100|000|0|11011|0000000000000001|1|
MASK_PIXEL: 305, 325 # entries 51477 rate 5147.7 kHz word 	|000000000000|000000|0000|000|0|10011000|000|0|10100|0010000000000000|1|
MASK_PIXEL: 310, 316 # entries 50498 rate 5049.8 kHz word 	|000000000000|000000|0000|000|0|10011011|000|1|10011|0000000000010000|1|
MASK_PIXEL: 314, 386 # entries 50368 rate 5036.8 kHz word 	|000000000000|000000|0000|000|0|10011101|000|0|11000|0000000000000100|1|
MASK_PIXEL: 316, 310 # entries 62277 rate 6227.7 kHz word 	|000000000000|000000|0000|000|0|10011110|000|0|10011|0000000001000000|1|
MASK_PIXEL: 322, 437 # entries 56910 rate 5691 kHz word 	|000000000000|000000|0000|000|0|10100001|000|0|11011|0000000000100000|1|
MASK_PIXEL: 342, 488 # entries 50801 rate 5080.1 kHz word 	|000000000000|000000|0000|000|0|10101011|000|1|11110|0000000000000001|1|
MASK_PIXEL: 319, 446 # entries 38412 rate 3841.2 kHz word 	|000000000000|000000|0000|000|0|10011111|000|1|11011|0100000000000000|1|
MASK_PIXEL: 330, 471 # entries 35416 rate 3541.6 kHz word 	|000000000000|000000|0000|000|0|10100101|000|0|11101|0000000010000000|1|
MASK_PIXEL: 324, 399 # entries 28057 rate 2805.7 kHz word 	|000000000000|000000|0000|000|0|10100010|000|1|11000|0000000010000000|1|
MASK_PIXEL: 307, 371 # entries 27589 rate 2758.9 kHz word 	|000000000000|000000|0000|000|0|10011001|000|0|10111|0000100000000000|1|
MASK_PIXEL: 349, 499 # entries 26860 rate 2686 kHz word 	|000000000000|000000|0000|000|0|10101110|000|0|11111|0000100000000000|1|
MASK_PIXEL: 384, 469 # entries 16209 rate 1620.9 kHz word 	|000000000000|000000|0000|000|0|11000000|000|0|11101|0000000000100000|1|
MASK_PIXEL: 348, 508 # entries 57209 rate 5720.9 kHz word 	|000000000000|000000|0000|000|0|10101110|000|1|11111|0000000000010000|1|
MASK_PIXEL: 331, 348 # entries 17711 rate 1771.1 kHz word 	|000000000000|000000|0000|000|0|10100101|000|1|10101|0001000000000000|1|
MASK_PIXEL: 305, 498 # entries 8719 rate 871.9 kHz word 	|000000000000|000000|0000|000|0|10011000|000|0|11111|0000010000000000|1|
MASK_PIXEL: 391, 482 # entries 4695 rate 469.5 kHz word 	|000000000000|000000|0000|000|0|11000011|000|0|11110|0000010000000000|1|
MASK_PIXEL: 327, 426 # entries 4488 rate 448.8 kHz word 	|000000000000|000000|0000|000|0|10100011|000|1|11010|0000010000000000|1|
MASK_PIXEL: 309, 290 # entries 4388 rate 438.8 kHz word 	|000000000000|000000|0000|000|0|10011010|000|0|10010|0000010000000000|1|
MASK_PIXEL: 311, 413 # entries 3539 rate 353.9 kHz word 	|000000000000|000000|0000|000|0|10011011|000|1|11001|0010000000000000|1|
MASK_PIXEL: 304, 296 # entries 3269 rate 326.9 kHz word 	|000000000000|000000|0000|000|0|10011000|000|1|10010|0000000000000001|1|
MASK_PIXEL: 392, 319 # entries 2632 rate 263.2 kHz word 	|000000000000|000000|0000|000|0|11000100|000|1|10011|0000000010000000|1|
MASK_PIXEL: 306, 468 # entries 2081 rate 208.1 kHz word 	|000000000000|000000|0000|000|0|10011001|000|0|11101|0000000000010000|1|
MASK_PIXEL: 350, 461 # entries 1979 rate 197.9 kHz word 	|000000000000|000000|0000|000|0|10101111|000|1|11100|0000000000100000|1|
MASK_PIXEL: 343, 351 # entries 1968 rate 196.8 kHz word 	|000000000000|000000|0000|000|0|10101011|000|1|10101|1000000000000000|1|
MASK_PIXEL: 330, 475 # entries 1200 rate 120 kHz word 	|000000000000|000000|0000|000|0|10100101|000|1|11101|0000000000001000|1|
MASK_PIXEL: 382, 437 #entries   10288
MASK_PIXEL: 313, 301 #entries   10654
MASK_PIXEL: 318, 429 #entries   12259
MASK_PIXEL: 330, 487 #entries   76949
MASK_PIXEL: 309, 435 #entries  129404
MASK_PIXEL: 348, 437 #entries  197241
MASK_PIXEL: 318, 427 #entries  228906
MASK_PIXEL: 302, 293 #entries  269673
MASK_PIXEL: 346, 434 #entries   92238
MASK_PIXEL: 318, 474 #entries   14865
MASK_PIXEL: 347, 452 #entries   17303
MASK_PIXEL: 344, 503 #entries   19610
MASK_PIXEL: 344, 321 #entries  211629
MASK_PIXEL: 260, 355 #entries   37903
MASK_PIXEL: 445, 383 #entries   51007
MASK_PIXEL: 471, 334 #entries   81890
MASK_PIXEL: 495, 419 #entries   84334
MASK_PIXEL: 284, 296 #entries  143180
MASK_PIXEL: 456, 476 #entries  221638
MASK_PIXEL: 295, 503 #entries  223839
MASK_PIXEL: 260, 355 #entries   37903
MASK_PIXEL: 445, 383 #entries   51007
MASK_PIXEL: 471, 334 #entries   81890
MASK_PIXEL: 495, 419 #entries   84334
MASK_PIXEL: 284, 296 #entries  143180
MASK_PIXEL: 456, 476 #entries  221638
MASK_PIXEL: 295, 503 #entries  223839
MASK_PIXEL: 407, 407 #entries    7254
MASK_PIXEL: 449, 343 #entries   11821
MASK_PIXEL: 334, 480 #entries   19122
MASK_PIXEL: 458, 294 #entries   73389
MASK_PIXEL: 399, 308 #entries  170303
MASK_PIXEL: 289, 464 #entries  171241
MASK_PIXEL: 307, 296 #entries  400929
