include: configs/DUT/TelescopePlanes.txt

[PLANE7]
address: udp://ep-ade-gw-02:50007
type: MALTA2
sample: W15R0
SC_ICASN: 10
SC_IBIAS: 43
SC_ITHR: 110
SC_IDB: 120
SC_VCASN: 110
SC_VRESET_P: 29
SC_VRESET_D: 65
SC_VCLIP: 125
TAP_FROM_TXT: /home/sbmuser/MaltaSW/Malta2/Results_TapCalib//W15R0/longCable_doubleChip_calib_run//calib_15.txt
MASK_PIXEL: 36, 341 # entries 249903 rate 9996.12 kHz word      |000000000000|000000|0000|000|0|00010010|000|0|10101|0000000000100000|1|
MASK_PIXEL: 89, 308 # entries 261201 rate 10448 kHz word        |000000000000|000000|0000|000|0|00101100|000|0|10011|0001000000000000|1|
MASK_PIXEL: 59, 388 # entries 86003 rate 3440.12 kHz word       |000000000000|000000|0000|000|0|00011101|000|0|11000|0001000000000000|1|
MASK_PIXEL: 53, 372 # entries 188975 rate 2519.67 kHz word      |000000000000|000000|0000|000|0|00011010|000|0|10111|0001000000000000|1|
MASK_PIXEL: 183, 354 # entries 58565 rate 585.65 kHz word       |000000000000|000000|0000|000|0|01011011|000|0|10110|0000010000000000|1|
MASK_PIXEL: 37, 340 # entries 9073 rate 90.73 kHz word  |000000000000|000000|0000|000|0|00010010|000|0|10101|0001000000000000|1|
MASK_PIXEL: 393, 465 # entries 6575 rate 65.75 kHz word         |000000000000|000000|0000|000|0|11000100|000|0|11101|0000001000000000|1|
MASK_PIXEL: 355, 298 # entries 1068 rate 10.68 kHz word         |000000000000|000000|0000|000|0|10110001|000|1|10010|0000010000000000|1|
MASK_PIXEL: 77, 336 # entries 612 rate 6.12 kHz word    |000000000000|000000|0000|000|0|00100110|000|0|10101|0000000100000000|1|
MASK_PIXEL: 74, 288 # entries 74 rate 0.74 kHz word     |000000000000|000000|0000|000|0|00100101|000|0|10010|0000000000000001|1|
MASK_PIXEL: 204, 303 # entries 55 rate 0.55 kHz word    |000000000000|000000|0000|000|0|01100110|000|1|10010|0000000010000000|1|
MASK_PIXEL: 326, 383 # entries 51 rate 0.51 kHz word    |000000000000|000000|0000|000|0|10100011|000|1|10111|0000000010000000|1|
MASK_PIXEL: 44, 456 # entries 48 rate 0.48 kHz word     |000000000000|000000|0000|000|0|00010110|000|1|11100|0000000000000001|1|
MASK_PIXEL: 134, 435 # entries 10 rate 0.1 kHz word     |000000000000|000000|0000|000|0|01000011|000|0|11011|0000000000001000|1|
###########################################################################################################################

[PLANE8]
address: udp://ep-ade-gw-02:50008
type: MALTA2
sample: W15R19
SC_ICASN: 10
SC_IBIAS: 43
SC_ITHR: 110
SC_IDB: 120
SC_VCASN: 110
SC_VRESET_P: 29
SC_VRESET_D: 65
SC_VCLIP: 125
TAP_FROM_TXT: /home/sbmuser/MaltaSW/Malta2/Results_TapCalib/W15R19/longCable_doubleChip_calib_run//calib_15.txt
