include: configs/DUT/TelescopePlanes.txt

[PLANE7]
address: udp://ep-ade-gw-02:50007
type: MALTA2
sample: W18R10
SC_ICASN: 2
SC_IBIAS: 60
SC_ITHR: 15
SC_IDB: 90
SC_VCASN: 110
SC_VRESET_P: 29
SC_VRESET_D: 65
SC_VCLIP: 125
TAP_FROM_TXT: /home/sbmuser/MaltaSW/Malta2/Results_TapCalib//W18R10/longCable_doubleChip_calib_run//calib_15.txt


MASK_DOUBLE_COLUMNS:0,50
MASK_DOUBLE_COLUMNS: 50,206

MASK_PIXEL: 485, 312 # entries 7844 rate 78.44 kHz word 	|000000000000|000000|0000|000|0|11110010|000|1|10011|0000000100000000|1|
MASK_PIXEL: 491, 449 # entries 5957 rate 59.57 kHz word 	|000000000000|000000|0000|000|0|11110101|000|0|11100|0000001000000000|1|
MASK_PIXEL: 467, 509 # entries 1173 rate 11.73 kHz word 	|000000000000|000000|0000|000|0|11101001|000|1|11111|0010000000000000|1|

MASK_PIXEL: 499, 435 #entries   14110
MASK_PIXEL: 464, 373 #entries   14719

MASK_PIXEL: 491, 302 #entries    1122
MASK_PIXEL: 459, 429 #entries    1129
MASK_PIXEL: 414, 431 #entries    1488
MASK_PIXEL: 462, 447 #entries    1680
MASK_PIXEL: 474, 355 #entries    1966
MASK_PIXEL: 485, 488 #entries    1993
MASK_PIXEL: 461, 378 #entries    2277
MASK_PIXEL: 488, 292 #entries    2686
MASK_PIXEL: 477, 329 #entries    2862
MASK_PIXEL: 464, 440 #entries    3037
MASK_PIXEL: 449, 389 #entries    3601

MASK_PIXEL: 428, 319 #entries    3174
MASK_PIXEL: 507, 404 #entries    3267
MASK_PIXEL: 466, 329 #entries    3582
MASK_PIXEL: 476, 328 #entries    4073
MASK_PIXEL: 450, 453 #entries    4085
MASK_PIXEL: 426, 386 #entries    4106
MASK_PIXEL: 453, 379 #entries    4765
MASK_PIXEL: 456, 294 #entries    4893
MASK_PIXEL: 465, 461 #entries    8932
MASK_PIXEL: 432, 408 #entries   10287
MASK_PIXEL: 509, 386 #entries   11477
MASK_PIXEL: 439, 373 #entries   12813

MASK_PIXEL: 455, 347 #entries     537
MASK_PIXEL: 453, 311 #entries     557
MASK_PIXEL: 471, 361 #entries     622

MASK_PIXEL: 501, 348 #entries     485
MASK_PIXEL: 501, 300 #entries     513
MASK_PIXEL: 510, 351 #entries     517
MASK_PIXEL: 460, 400 #entries     520
MASK_PIXEL: 495, 318 #entries     543
MASK_PIXEL: 456, 341 #entries     568
MASK_PIXEL: 507, 483 #entries     627
MASK_PIXEL: 495, 433 #entries     696
MASK_PIXEL: 454, 333 #entries     729
MASK_PIXEL: 438, 314 #entries     701
MASK_PIXEL: 421, 327 #entries     713
MASK_PIXEL: 457, 335 #entries     720
MASK_PIXEL: 509, 424 #entries     768
MASK_PIXEL: 465, 474 #entries     769
MASK_PIXEL: 414, 416 #entries     794
MASK_PIXEL: 465, 298 #entries     819


###########################################################################################################################

[PLANE8]
address: udp://ep-ade-gw-02:50008
type: MALTA2
sample: W18R9
SC_ICASN: 2
SC_IBIAS: 43
SC_ITHR: 15
SC_IDB: 120
SC_VCASN: 110
SC_VRESET_P: 29
SC_VRESET_D: 65
SC_VCLIP: 125
TAP_FROM_TXT: /home/sbmuser/MaltaSW/Malta2/Results_TapCalib/W18R9/longCable_doubleChip_calib_run//calib_15.txt

MASK_DOUBLE_COLUMNS:0,50
MASK_DOUBLE_COLUMNS: 50,206

MASK_PIXEL: 421, 288 # entries 39992 rate 399.92 kHz word 	|000000000000|000000|0000|000|0|11010010|000|0|10010|0000000100000000|1|
MASK_PIXEL: 466, 290 # entries 18251 rate 182.51 kHz word 	|000000000000|000000|0000|000|0|11101001|000|0|10010|0000000000000100|1|
MASK_PIXEL: 485, 289 # entries 14411 rate 144.11 kHz word 	|000000000000|000000|0000|000|0|11110010|000|0|10010|0000001000000000|1|
MASK_PIXEL: 455, 303 # entries 15246 rate 152.46 kHz word 	|000000000000|000000|0000|000|0|11100011|000|1|10010|1000000000000000|1|
MASK_PIXEL: 487, 290 # entries 14352 rate 143.52 kHz word 	|000000000000|000000|0000|000|0|11110011|000|0|10010|0000010000000000|1|
MASK_PIXEL: 469, 303 # entries 12553 rate 125.53 kHz word 	|000000000000|000000|0000|000|0|11101010|000|1|10010|1000000000000000|1|
MASK_PIXEL: 428, 288 # entries 7335 rate 73.35 kHz word 	|000000000000|000000|0000|000|0|11010110|000|0|10010|0000000000000001|1|
MASK_PIXEL: 432, 288 # entries 6439 rate 64.39 kHz word 	|000000000000|000000|0000|000|0|11011000|000|0|10010|0000000000000001|1|
MASK_PIXEL: 436, 324 # entries 5254 rate 52.54 kHz word 	|000000000000|000000|0000|000|0|11011010|000|0|10100|0000000000010000|1|
MASK_PIXEL: 423, 311 # entries 4508 rate 45.08 kHz word 	|000000000000|000000|0000|000|0|11010011|000|0|10011|1000000000000000|1|
#MASK_PIXEL: 483, 288 # entries 3593 rate 35.93 kHz word 	|000000000000|000000|0000|000|0|11110001|000|0|10010|0000000100000000|1|
#MASK_PIXEL: 477, 316 # entries 3520 rate 35.2 kHz word 	|000000000000|000000|0000|000|0|11101110|000|1|10011|0001000000000000|1|
#MASK_PIXEL: 485, 292 # entries 3580 rate 35.8 kHz word 	|000000000000|000000|0000|000|0|11110010|000|0|10010|0001000000000000|1|
#MASK_PIXEL: 416, 288 # entries 2181 rate 21.81 kHz word 	|000000000000|000000|0000|000|0|11010000|000|0|10010|0000000000000001|1|
#MASK_PIXEL: 424, 288 # entries 2048 rate 20.48 kHz word 	|000000000000|000000|0000|000|0|11010100|000|0|10010|0000000000000001|1|
#MASK_PIXEL: 444, 288 # entries 1742 rate 17.42 kHz word 	|000000000000|000000|0000|000|0|11011110|000|0|10010|0000000000000001|1|
#MASK_PIXEL: 493, 291 # entries 1552 rate 15.52 kHz word 	|000000000000|000000|0000|000|0|11110110|000|0|10010|0000100000000000|1|
#MASK_PIXEL: 494, 303 # entries 1476 rate 14.76 kHz word 	|000000000000|000000|0000|000|0|11110111|000|1|10010|0000000010000000|1|
#MASK_PIXEL: 469, 304 # entries 1445 rate 14.45 kHz word 	|000000000000|000000|0000|000|0|11101010|000|0|10011|0000000100000000|1|
#MASK_PIXEL: 487, 358 # entries 1490 rate 14.9 kHz word 	|000000000000|000000|0000|000|0|11110011|000|0|10110|0100000000000000|1|
#MASK_PIXEL: 462, 288 # entries 1175 rate 11.75 kHz word 	|000000000000|000000|0000|000|0|11100111|000|0|10010|0000000000000001|1|
#MASK_PIXEL: 434, 288 # entries 1003 rate 10.03 kHz word 	|000000000000|000000|0000|000|0|11011001|000|0|10010|0000000000000001|1|
#MASK_PIXEL: 478, 291 # entries 914 rate 9.14 kHz word 	|000000000000|000000|0000|000|0|11101111|000|0|10010|0000000000001000|1|
#MASK_PIXEL: 415, 288 # entries 959 rate 9.59 kHz word 	|000000000000|000000|0000|000|0|11001111|000|0|10010|0000000100000000|1|
#MASK_PIXEL: 456, 288 # entries 795 rate 7.95 kHz word 	|000000000000|000000|0000|000|0|11100100|000|0|10010|0000000000000001|1|
#MASK_PIXEL: 448, 288 # entries 661 rate 6.61 kHz word 	|000000000000|000000|0000|000|0|11100000|000|0|10010|0000000000000001|1|
MASK_PIXEL: 448, 342 #entries     438
MASK_PIXEL: 452, 288 #entries   11197
MASK_PIXEL: 433, 289 #entries   12267
MASK_PIXEL: 460, 288 #entries   14649

MASK_PIXEL: 438, 289 #entries    1000
MASK_PIXEL: 434, 289 #entries    1309
MASK_PIXEL: 437, 288 #entries    1769
MASK_PIXEL: 422, 288 #entries    2509
MASK_PIXEL: 441, 288 #entries    2802
MASK_PIXEL: 415, 289 #entries    3260
MASK_PIXEL: 485, 292 #entries    6436
MASK_PIXEL: 477, 316 #entries    7241
MASK_PIXEL: 424, 288 #entries    7747
MASK_PIXEL: 444, 288 #entries    8469
MASK_PIXEL: 456, 288 #entries   13454

MASK_PIXEL: 493, 291 #entries    1571
MASK_PIXEL: 448, 288 #entries    1650
MASK_PIXEL: 487, 358 #entries    2062
MASK_PIXEL: 469, 304 #entries    2161
MASK_PIXEL: 483, 288 #entries    2425
MASK_PIXEL: 462, 288 #entries    2875

MASK_PIXEL: 478, 291 #entries  155844
MASK_PIXEL: 456, 328 #entries  160152
MASK_PIXEL: 476, 392 #entries  183208
MASK_PIXEL: 500, 292 #entries  265328

MASK_PIXEL: 468, 384 #entries   22205
MASK_PIXEL: 449, 301 #entries   35425
MASK_PIXEL: 418, 301 #entries   36308
MASK_PIXEL: 422, 455 #entries   43711
MASK_PIXEL: 440, 293 #entries   44679
MASK_PIXEL: 438, 377 #entries  208879

MASK_PIXEL: 472, 366 #entries    9554
MASK_PIXEL: 422, 341 #entries   18058
MASK_PIXEL: 482, 316 #entries   21372
