include: configs/DUT/TelescopePlanes.txt

[PLANE7]
address: udp://ep-ade-gw-02:50007
type: MALTA2
sample: W18R10
SC_ICASN: 2
SC_IBIAS: 46
SC_ITHR: 15
SC_IDB: 110
SC_VCASN: 110
SC_VRESET_P: 29
SC_VRESET_D: 65
SC_VCLIP: 125
TAP_FROM_TXT: /home/sbmuser/MaltaSW/Malta2/Results_TapCalib//W18R10/longCable_doubleChip_calib_run//calib_15.txt


MASK_DOUBLE_COLUMNS: 50,206
MASK_DOUBLE_COLUMNS: 206,256

MASK_PIXEL: 11, 372 # entries 23628 rate 236.28 kHz word 	|000000000000|000000|0000|000|0|00000101|000|0|10111|0001000000000000|1|
MASK_PIXEL: 36, 372 # entries 18798 rate 187.98 kHz word 	|000000000000|000000|0000|000|0|00010010|000|0|10111|0000000000010000|1|

MASK_PIXEL: 13, 457 # entries 81577 rate 815.77 kHz word 	|000000000000|000000|0000|000|0|00000110|000|1|11100|0000001000000000|1|
MASK_PIXEL: 8, 447 # entries 100505 rate 1005.05 kHz word 	|000000000000|000000|0000|000|0|00000100|000|1|11011|0000000010000000|1|
MASK_PIXEL: 6, 487 # entries 78792 rate 787.92 kHz word 	|000000000000|000000|0000|000|0|00000011|000|0|11110|0000000010000000|1|
MASK_PIXEL: 59, 321 # entries 43574 rate 435.74 kHz word 	|000000000000|000000|0000|000|0|00011101|000|0|10100|0000001000000000|1|

MASK_PIXEL:  18, 357 #entries    2070
MASK_PIXEL:  59, 411 #entries   36469

MASK_PIXEL:  18, 437 #entries     849
MASK_PIXEL:   0, 358 #entries     866
MASK_PIXEL:  14, 407 #entries    1181
MASK_PIXEL:  50, 313 #entries    3954

MASK_PIXEL:   0, 447 #entries  440173

MASK_PIXEL:   1, 429 #entries   57744

MASK_PIXEL:   1, 342 #entries   19348
MASK_PIXEL:  48, 403 #entries   31594

MASK_PIXEL:   9, 288 #entries    1422
MASK_PIXEL:   8, 288 #entries    1544
MASK_PIXEL:  39, 288 #entries    1589
MASK_PIXEL:  14, 288 #entries    2182
MASK_PIXEL:  57, 399 #entries    3190
MASK_PIXEL:   7, 288 #entries   14012
MASK_PIXEL:  17, 407 #entries   23596
MASK_PIXEL:   1, 288 #entries     821
MASK_PIXEL:  96, 288 #entries     906
MASK_PIXEL:   2, 288 #entries    1020
MASK_PIXEL:  42, 393 #entries    1110
MASK_PIXEL:  28, 288 #entries    1156
MASK_PIXEL:  23, 289 #entries    1211

MASK_PIXEL:  18, 288 #entries     783
MASK_PIXEL:   0, 288 #entries     836
MASK_PIXEL:   5, 328 #entries     873
MASK_PIXEL:  30, 288 #entries    1187
MASK_PIXEL:   7, 309 #entries    1225
MASK_PIXEL:  38, 288 #entries    1254
MASK_PIXEL:   5, 289 #entries    2211
MASK_PIXEL:  97, 288 #entries    1031

###########################################################################################################################

[PLANE8]
address: udp://ep-ade-gw-02:50008
type: MALTA2
sample: W18R9
SC_ICASN: 2
SC_IBIAS: 46
SC_ITHR: 15
SC_IDB: 110
SC_VCASN: 110
SC_VRESET_P: 29
SC_VRESET_D: 65
SC_VCLIP: 125
TAP_FROM_TXT: /home/sbmuser/MaltaSW/Malta2/Results_TapCalib/W18R9/longCable_doubleChip_calib_run//calib_15.txt

MASK_DOUBLE_COLUMNS: 50,206
MASK_DOUBLE_COLUMNS: 206,255

MASK_PIXEL: 4, 314 # entries 43008 rate 430.08 kHz word 	|000000000000|000000|0000|000|0|00000010|000|1|10011|0000000000000100|1|
MASK_PIXEL: 97, 289 # entries 248794 rate 2487.94 kHz word 	|000000000000|000000|0000|000|0|00110000|000|0|10010|0000001000000000|1|
MASK_PIXEL: 95, 333 # entries 110294 rate 1102.94 kHz word 	|000000000000|000000|0000|000|0|00101111|000|1|10100|0010000000000000|1|
MASK_PIXEL: 10, 352 # entries 20942 rate 209.42 kHz word 	|000000000000|000000|0000|000|0|00000101|000|0|10110|0000000000000001|1|
MASK_PIXEL: 26, 364 # entries 14620 rate 146.2 kHz word 	|000000000000|000000|0000|000|0|00001101|000|1|10110|0000000000010000|1|
MASK_PIXEL:  10, 308 #entries     544
MASK_PIXEL:   2, 303 #entries    7681

MASK_PIXEL:   5, 290 #entries   75323

MASK_PIXEL:  62, 373 #entries    2678
MASK_PIXEL:  63, 369 #entries    2679
MASK_PIXEL:  12, 341 #entries  125297
MASK_PIXEL:  51, 305 #entries  182166
