include: configs/DUT/TelescopePlanes.txt

[PLANE7]
address: udp://ep-ade-gw-02:50007
type: MALTA2
sample: W5R9
SC_ICASN: 2
SC_IBIAS: 20
SC_ITHR: 120
SC_IDB: 120
SC_VCASN: 110
SC_VRESET_P: 29
SC_VRESET_D: 65
SC_VCLIP: 125
TAP_FROM_TXT: /home/sbmuser/MaltaSW/Malta2/Results_TapCalib//W18R10/longCable_doubleChip_calib_run//calib_15.txt

MASK_PIXEL: 23, 291 # entries 57180 rate 571.8 kHz word 	|000000000000|000000|0000|000|0|00001011|000|0|10010|0000100000000000|1|

MASK_PIXEL: 47, 360 # entries 70096 rate 700.96 kHz word 	|000000000000|000000|0000|000|0|00010111|000|1|10110|0000000100000000|1|
MASK_PIXEL: 42, 454 # entries 17304 rate 173.04 kHz word 	|000000000000|000000|0000|000|0|00010101|000|0|11100|0000000001000000|1|
MASK_PIXEL: 65, 398 # entries 84675 rate 846.75 kHz word 	|000000000000|000000|0000|000|0|00100000|000|1|11000|0100000000000000|1|
MASK_PIXEL: 98, 387 # entries 3065 rate 30.65 kHz word    	|000000000000|000000|0000|000|0|00110001|000|0|11000|0000000000001000|1|
MASK_PIXEL: 98, 387 # entries 8465 rate 84.65 kHz word   	|000000000000|000000|0000|000|0|00110001|000|0|11000|0000000000001000|1|




#MASK_PIXEL: 30, 491 # entries 12486 rate 124.86 kHz word 	|000000000000|000000|0000|000|0|00001111|000|1|11110|0000000000001000|1|



MASK_DOUBLE_COLUMNS: 50, 256
#MASK_DOUBLE_COLUMNS: 0,200
MASK_DOUBLE_COLUMN: 15
MASK_DOUBLE_COLUMN: 23
MASK_DOUBLE_COLUMN: 32

#####################################################################################################

[PLANE8]
address: udp://ep-ade-gw-02:50008
type: MALTA2
sample: W5R6 
SC_ICASN: 10
SC_IBIAS: 43
SC_ITHR: 120
SC_IDB: 120
SC_VCASN: 110
SC_VRESET_P: 29
SC_VRESET_D: 65
SC_VCLIP: 125


TAP_FROM_TXT: /home/sbmuser/MaltaSW/Malta2/Results_TapCalib//W5R6/longCable_doubleChip_calib_run//calib_15.txt

MASK_PIXEL: 476, 474 #entries    1010
MASK_PIXEL: 476, 478 #entries    1014
MASK_PIXEL: 436, 329 #entries    1136
MASK_PIXEL: 451, 288 #entries    1137
MASK_PIXEL: 463, 494 #entries    1158
MASK_PIXEL: 462, 490 #entries    1159
MASK_PIXEL: 458, 378 #entries    1204
MASK_PIXEL: 459, 376 #entries    1235
MASK_PIXEL:   0, 274 #entries    1340
MASK_PIXEL: 462, 402 #entries    1411
MASK_PIXEL: 462, 442 #entries    1414
MASK_PIXEL: 463, 406 #entries    1419
MASK_PIXEL:  72, 351 #entries    1490
MASK_PIXEL: 269, 402 #entries    1509
MASK_PIXEL:   0,  34 #entries    1634
MASK_PIXEL: 463, 440 #entries    1697
MASK_PIXEL: 499, 378 #entries    1828
MASK_PIXEL: 498, 378 #entries    1833
MASK_PIXEL: 503, 466 #entries    2118
MASK_PIXEL: 502, 466 #entries    2157
MASK_PIXEL: 144, 490 #entries    2441
MASK_PIXEL: 163, 503 #entries    2502
MASK_PIXEL:   0, 106 #entries    2535
MASK_PIXEL: 148, 434 #entries    2759
MASK_PIXEL:   0, 402 #entries    3065
MASK_PIXEL: 100, 371 #entries    3357
MASK_PIXEL:   0,  18 #entries    3919
MASK_PIXEL: 216, 311 #entries    5252
MASK_PIXEL:   4, 506 #entries    8248
MASK_PIXEL: 135, 312 #entries    9256
MASK_PIXEL: 476, 321 #entries   10178
MASK_PIXEL: 105, 289 #entries   18573
MASK_PIXEL: 472, 350 #entries   21549
MASK_PIXEL: 463, 390 #entries   28923
MASK_PIXEL: 459, 312 #entries   30508
MASK_PIXEL: 499, 338 #entries   44795
MASK_PIXEL: 144, 418 #entries   56869
MASK_PIXEL:   0, 362 #entries  176984
MASK_PIXEL:   4, 402 #entries  202949
MASK_PIXEL:  17, 296 #entries    5054
MASK_PIXEL: 428, 406 #entries    7313
MASK_PIXEL: 465, 392 #entries    7428
MASK_PIXEL:  29, 345 #entries    9172
MASK_PIXEL: 108, 359 #entries   11413
