include: configs/DUT/TelescopePlanes.txt

[PLANE7]
address: udp://ep-ade-gw-02:50007
type: MALTA2
sample: W15R4
SC_ICASN: 10
SC_IBIAS: 43
SC_ITHR: 15
SC_IDB: 120
SC_VCASN: 110
SC_VRESET_P: 29
SC_VRESET_D: 65
SC_VCLIP: 125
TAP_FROM_TXT: /home/sbmuser/MaltaSW/Malta2/Results_TapCalib//W15R4/longCable_doubleChip_calib_run//calib_15.txt

MASK_DOUBLE_COLUMNS: 0,206
MASK_PIXEL: 456, 299 #entries    4399
MASK_PIXEL: 492, 503 #entries    5263
MASK_PIXEL: 508, 415 #entries    5867
MASK_PIXEL: 509, 411 #entries    5892
MASK_PIXEL: 511, 414 #entries    6613
MASK_PIXEL: 508, 511 #entries   11094
MASK_PIXEL: 509, 507 #entries   11106
MASK_PIXEL: 484, 407 #entries  165456
MASK_PIXEL: 460, 503 #entries  308674
MASK_PIXEL: 317, 395 #entries  361420
MASK_PIXEL: 477, 492 #entries    1026
MASK_PIXEL: 332, 288 #entries    1060
MASK_PIXEL: 325, 325 #entries    1075
MASK_PIXEL: 486, 483 #entries    1409
MASK_PIXEL: 446, 295 #entries    1853
MASK_PIXEL: 497, 350 #entries    1889
MASK_PIXEL: 331, 358 #entries    2033
MASK_PIXEL: 474, 344 #entries    2076
MASK_PIXEL: 473, 384 #entries    2450
MASK_PIXEL: 318, 366 #entries    2632
MASK_PIXEL: 497, 306 #entries    2975
MASK_PIXEL: 388, 290 #entries    4063
MASK_PIXEL: 370, 436 #entries    5993
MASK_PIXEL: 504, 504 #entries    6396
MASK_PIXEL: 365, 389 #entries   11979
MASK_PIXEL: 439, 357 #entries   28309
MASK_PIXEL: 341, 332 #entries   51465
MASK_PIXEL: 464, 353 #entries  248992
MASK_PIXEL: 492, 291 #entries    1125
MASK_PIXEL: 503, 363 #entries    1170
MASK_PIXEL: 463, 387 #entries    1244
MASK_PIXEL: 372, 380 #entries    1272
MASK_PIXEL: 502, 363 #entries    1806
MASK_PIXEL: 314, 509 #entries    1953
MASK_PIXEL: 376, 438 #entries   55627
MASK_PIXEL: 464, 354 #entries   18801
MASK_PIXEL: 465, 422 #entries    1061
MASK_PIXEL: 488, 322 #entries    1137
MASK_PIXEL: 451, 471 #entries    1226
MASK_PIXEL: 461, 341 #entries    1364
MASK_PIXEL: 464, 424 #entries    1378
MASK_PIXEL: 477, 372 #entries    1382
MASK_PIXEL: 485, 308 #entries    1405
MASK_PIXEL: 482, 338 #entries    1439
MASK_PIXEL: 426, 370 #entries    1568
MASK_PIXEL: 493, 319 #entries    1580
MASK_PIXEL: 414, 292 #entries    1703
MASK_PIXEL: 508, 308 #entries    1924
MASK_PIXEL: 481, 339 #entries    1960
MASK_PIXEL: 511, 468 #entries    2013
MASK_PIXEL: 499, 463 #entries    2071
MASK_PIXEL: 443, 306 #entries    2188
MASK_PIXEL: 461, 418 #entries    2227
MASK_PIXEL: 487, 472 #entries    2763
MASK_PIXEL: 455, 495 #entries    2802
MASK_PIXEL: 464, 420 #entries    3006
MASK_PIXEL: 471, 381 #entries    3015
MASK_PIXEL: 481, 365 #entries    3317
MASK_PIXEL: 461, 401 #entries    3560
MASK_PIXEL: 456, 375 #entries    3703
MASK_PIXEL: 453, 505 #entries    3704
MASK_PIXEL: 483, 473 #entries    4189
MASK_PIXEL: 482, 380 #entries    4355
MASK_PIXEL: 494, 321 #entries    5512
MASK_PIXEL: 460, 411 #entries    1013
MASK_PIXEL: 463, 429 #entries    1073
MASK_PIXEL: 500, 319 #entries    1107
MASK_PIXEL: 483, 474 #entries    1164
MASK_PIXEL: 458, 491 #entries    1202
MASK_PIXEL: 463, 474 #entries    1270
MASK_PIXEL: 415, 380 #entries    1291
MASK_PIXEL: 459, 445 #entries    1323
MASK_PIXEL: 455, 437 #entries    1365
MASK_PIXEL: 453, 422 #entries    1502
MASK_PIXEL: 454, 413 #entries    1536
MASK_PIXEL: 498, 420 #entries    1581
MASK_PIXEL: 482, 321 #entries    1688
MASK_PIXEL: 462, 417 #entries    1702
MASK_PIXEL: 467, 329 #entries    1726
###########################################################################################################################
[PLANE8]
address: udp://ep-ade-gw-02:50008
type: MALTA2
sample: W15R5
SC_ICASN: 2
SC_IBIAS: 20
SC_ITHR: 30
SC_IDB: 120
SC_VCASN: 110
SC_VRESET_P: 29
SC_VRESET_D: 65
SC_VCLIP: 125
TAP_FROM_TXT: /home/sbmuser/MaltaSW/Malta2/Results_TapCalib/W15R5/longCable_doubleChip_calib_run//calib_15.txt
MASK_DOUBLE_COLUMNS: 0,206
MASK_PIXEL: 319, 394 #entries  134216
MASK_PIXEL: 503, 436 #entries   11369
MASK_PIXEL: 500, 436 #entries   13664
MASK_PIXEL: 336, 296 #entries   17895
MASK_PIXEL: 500, 437 #entries   18995
MASK_PIXEL: 497, 410 #entries   26463
MASK_PIXEL: 499, 409 #entries   27877
MASK_PIXEL: 498, 409 #entries   74632
MASK_PIXEL: 496, 410 #entries   81980
MASK_PIXEL: 499, 410 #entries  126242
MASK_PIXEL: 498, 410 #entries  127979
MASK_PIXEL: 503, 428 #entries   10796
MASK_PIXEL: 502, 435 #entries   11964
MASK_PIXEL: 499, 426 #entries   12068
MASK_PIXEL: 503, 436 #entries   12157
MASK_PIXEL: 503, 426 #entries   12443
MASK_PIXEL: 498, 428 #entries   14307
MASK_PIXEL: 500, 428 #entries   14741
MASK_PIXEL: 498, 435 #entries   15958
MASK_PIXEL: 502, 427 #entries   16341
MASK_PIXEL: 499, 435 #entries   19395
MASK_PIXEL: 499, 428 #entries   29738
MASK_PIXEL: 500, 435 #entries   29829
MASK_PIXEL: 501, 436 #entries   31141
MASK_PIXEL: 498, 427 #entries   33254
MASK_PIXEL: 499, 437 #entries   45777
MASK_PIXEL: 501, 414 #entries   24360
MASK_PIXEL: 497, 408 #entries   78539
MASK_PIXEL: 491, 479 #entries   10777
MASK_PIXEL: 498, 431 #entries   11104
MASK_PIXEL: 499, 431 #entries   11601
MASK_PIXEL: 502, 412 #entries   11909
MASK_PIXEL: 494, 408 #entries   12895
MASK_PIXEL: 492, 408 #entries   13316
MASK_PIXEL: 494, 409 #entries   13357
MASK_PIXEL: 502, 413 #entries   14268
MASK_PIXEL: 503, 413 #entries   15388
MASK_PIXEL: 495, 408 #entries   16467
MASK_PIXEL: 495, 409 #entries   17854
MASK_PIXEL: 500, 412 #entries   18852
MASK_PIXEL: 499, 413 #entries   24907
MASK_PIXEL: 501, 413 #entries   43701
MASK_PIXEL: 493, 480 #entries   12989
MASK_PIXEL: 492, 479 #entries   13559
MASK_PIXEL: 506, 452 #entries   13743
MASK_PIXEL: 493, 479 #entries   28188
MASK_PIXEL: 495, 437 #entries   11062
MASK_PIXEL: 495, 438 #entries   12037
MASK_PIXEL: 495, 436 #entries   14020
MASK_PIXEL: 494, 437 #entries   16426
MASK_PIXEL: 494, 411 #entries    2120
MASK_PIXEL: 490, 468 #entries    2168
MASK_PIXEL: 506, 383 #entries    2434
MASK_PIXEL: 493, 468 #entries    2499
MASK_PIXEL: 502, 444 #entries    2588
MASK_PIXEL: 502, 443 #entries    2878
MASK_PIXEL: 493, 410 #entries    3295
MASK_PIXEL: 495, 477 #entries    3462
MASK_PIXEL: 501, 443 #entries    3682
MASK_PIXEL: 495, 478 #entries    4206
MASK_PIXEL: 492, 409 #entries    4830
MASK_PIXEL: 496, 436 #entries    5119
MASK_PIXEL: 503, 443 #entries    6833
MASK_PIXEL: 502, 442 #entries    7880
MASK_PIXEL: 496, 477 #entries    8167
MASK_PIXEL: 497, 477 #entries    8537
MASK_PIXEL: 494, 438 #entries    9730
MASK_PIXEL: 511, 388 #entries   10842
MASK_PIXEL: 511, 389 #entries   11876
MASK_PIXEL: 506, 411 #entries   11936
MASK_PIXEL: 503, 482 #entries   10090
MASK_PIXEL: 510, 388 #entries   11327
MASK_PIXEL: 499, 394 #entries   12309
MASK_PIXEL: 494, 479 #entries   13826
MASK_PIXEL: 503, 395 #entries   18253
MASK_PIXEL: 503, 394 #entries   20698
MASK_PIXEL: 501, 394 #entries   21445
MASK_PIXEL: 501, 396 #entries   21903
MASK_PIXEL: 503, 396 #entries   26804
MASK_PIXEL: 499, 395 #entries   35169
MASK_PIXEL: 500, 395 #entries   37395
MASK_PIXEL: 500, 396 #entries   41091
MASK_PIXEL: 501, 395 #entries   41908
MASK_PIXEL: 499, 396 #entries   44724
MASK_PIXEL: 500, 394 #entries   88320
MASK_PIXEL: 495, 489 #entries   10434
MASK_PIXEL: 496, 382 #entries   10876
MASK_PIXEL: 504, 412 #entries   11065
MASK_PIXEL: 495, 490 #entries   11267
MASK_PIXEL: 498, 419 #entries   11373
MASK_PIXEL: 510, 385 #entries   11579
MASK_PIXEL: 508, 468 #entries   11625
MASK_PIXEL: 495, 491 #entries   12082
MASK_PIXEL: 504, 480 #entries   13443
MASK_PIXEL: 503, 481 #entries   13891
MASK_PIXEL: 493, 490 #entries   14246
MASK_PIXEL: 493, 489 #entries   14825
MASK_PIXEL: 492, 489 #entries   14946
MASK_PIXEL: 491, 490 #entries   17998
MASK_PIXEL: 510, 387 #entries   10630
MASK_PIXEL: 507, 411 #entries   10641
MASK_PIXEL: 495, 456 #entries   11074
MASK_PIXEL: 505, 410 #entries   13007
MASK_PIXEL: 507, 412 #entries   14962
MASK_PIXEL: 511, 451 #entries   15125
MASK_PIXEL: 510, 452 #entries   20669
MASK_PIXEL: 511, 453 #entries   23091
MASK_PIXEL: 510, 451 #entries   23661
MASK_PIXEL: 496, 451 #entries   23900
MASK_PIXEL: 496, 452 #entries   25744
MASK_PIXEL: 495, 453 #entries   31511
MASK_PIXEL: 496, 453 #entries   33854
MASK_PIXEL: 505, 412 #entries   36985
MASK_PIXEL: 506, 410 #entries   43800
MASK_PIXEL: 506, 412 #entries   45747
MASK_PIXEL: 504, 411 #entries   57604
MASK_PIXEL: 495, 451 #entries   62498
MASK_PIXEL: 495, 452 #entries   65981
MASK_PIXEL: 497, 400 #entries   10106
MASK_PIXEL: 497, 382 #entries   10413
MASK_PIXEL: 511, 504 #entries   10461
MASK_PIXEL: 494, 384 #entries   10943
MASK_PIXEL: 494, 484 #entries   11062
MASK_PIXEL: 495, 484 #entries   11288
MASK_PIXEL: 510, 504 #entries   13033
MASK_PIXEL: 496, 400 #entries   13116
MASK_PIXEL: 510, 422 #entries   13853
MASK_PIXEL: 495, 420 #entries   14732
MASK_PIXEL: 494, 485 #entries   17001
MASK_PIXEL: 495, 382 #entries   20300
MASK_PIXEL: 510, 444 #entries   34140
MASK_PIXEL: 510, 389 #entries   10401
MASK_PIXEL: 500, 397 #entries   10441
MASK_PIXEL: 490, 467 #entries   10643
MASK_PIXEL: 495, 407 #entries   11544
MASK_PIXEL: 495, 401 #entries   11593
MASK_PIXEL: 495, 398 #entries   12269
MASK_PIXEL: 507, 466 #entries   12737
MASK_PIXEL: 493, 401 #entries   14193
MASK_PIXEL: 494, 407 #entries   14461
MASK_PIXEL: 511, 387 #entries   14468
MASK_PIXEL: 507, 393 #entries   15424
MASK_PIXEL: 494, 402 #entries   15653
MASK_PIXEL: 494, 401 #entries   44787
MASK_PIXEL: 493, 378 #entries   10529
MASK_PIXEL: 494, 460 #entries   10973
MASK_PIXEL: 491, 410 #entries   11415
MASK_PIXEL: 492, 411 #entries   11739
MASK_PIXEL: 510, 450 #entries   12522
MASK_PIXEL: 493, 411 #entries   14406
MASK_PIXEL: 492, 410 #entries   15571
MASK_PIXEL: 491, 409 #entries   18117
MASK_PIXEL: 495, 375 #entries   19925
MASK_PIXEL: 494, 375 #entries   22068
MASK_PIXEL: 493, 377 #entries   26383
MASK_PIXEL: 493, 376 #entries   27725
MASK_PIXEL: 494, 377 #entries   28504
MASK_PIXEL: 494, 378 #entries   29405
MASK_PIXEL: 494, 376 #entries   33236
MASK_PIXEL: 495, 376 #entries   40210
MASK_PIXEL: 495, 378 #entries   44005
MASK_PIXEL: 495, 377 #entries   44596
MASK_PIXEL: 494, 406 #entries   11708
MASK_PIXEL: 504, 418 #entries   14950
MASK_PIXEL: 499, 476 #entries   10269
MASK_PIXEL: 494, 399 #entries   10608
MASK_PIXEL: 509, 421 #entries   11238
MASK_PIXEL: 508, 432 #entries   11774
MASK_PIXEL: 511, 450 #entries   11813
MASK_PIXEL: 493, 456 #entries   12802
MASK_PIXEL: 509, 431 #entries   13984
MASK_PIXEL: 511, 432 #entries   15664
MASK_PIXEL: 494, 379 #entries   15759
MASK_PIXEL: 509, 452 #entries   16685
MASK_PIXEL: 505, 427 #entries   17527
MASK_PIXEL: 501, 424 #entries   19942
MASK_PIXEL: 511, 430 #entries   20137
MASK_PIXEL: 510, 432 #entries   22086
MASK_PIXEL: 510, 430 #entries   22951
MASK_PIXEL: 511, 431 #entries   24179
MASK_PIXEL: 495, 439 #entries   25168
MASK_PIXEL: 509, 432 #entries   35062
MASK_PIXEL: 505, 378 #entries   10018
MASK_PIXEL: 494, 416 #entries   10537
MASK_PIXEL: 501, 473 #entries   11116
MASK_PIXEL: 496, 384 #entries   11622
MASK_PIXEL: 506, 391 #entries   13001
MASK_PIXEL: 501, 474 #entries   13151
MASK_PIXEL: 502, 493 #entries   14358
MASK_PIXEL: 502, 473 #entries   15468
MASK_PIXEL: 494, 383 #entries   15586
MASK_PIXEL: 494, 382 #entries   16891
MASK_PIXEL: 495, 416 #entries   18001
MASK_PIXEL: 495, 479 #entries   19484
MASK_PIXEL: 509, 469 #entries   23246
