address: udp://ep-ade-gw-04:50002
type: MALTAC
sample: W9R4
SC_ICASN: 10
SC_IBIAS: 80
SC_ITHR: 127
SC_IDB: 127
SC_IRESET: 30
SC_VCASN: 64
SC_VRESET_P: 127
SC_VRESET_D: 65
SC_VCLIP: 127
SC_VPULSE_LOW: 5
SC_VPULSE_HIGH: 90
MASK_DOUBLE_COLUMNS: 128, 255
#MASK_DOUBLE_COLUMNS: 200, 255
#MASK_DOUBLE_COLUMNS:   0,  63

#MASK_PIXEL: 220, 63

#ROI col1, row1, col2, row2
#must be set at the end of the configuraion
#ROI: 120, 140, 400, 420 
#ROI: 0, 0, 20, 20
