address: udp://ep-ade-gw-05:50003
type: MALTAC
sample: W7R20
SC_ICASN: 10
SC_IBIAS: 80
SC_ITHR: 30
SC_IDB: 100
SC_IRESET: 10
SC_VCASN: 64
SC_VRESET_P: 45
SC_VRESET_D: 65
SC_VCLIP: 127
#MASK_DOUBLE_COLUMNS: 128, 255
#MASK_DOUBLE_COLUMNS: 200, 255
#MASK_DOUBLE_COLUMNS:   0,  60
MASK_PIXEL: 368,40
MASK_PIXEL: 448,8
MASK_PIXEL: 296,18
MASK_PIXEL: 310,276
MASK_PIXEL: 316,236
MASK_PIXEL: 299,183
MASK_PIXEL: 51,282
MASK_PIXEL: 311,451
MASK_PIXEL: 356,306
MASK_PIXEL: 408,386
MASK_PIXEL: 96,40
MASK_PIXEL: 284,138
MASK_PIXEL: 394,160
MASK_PIXEL: 375,229
MASK_PIXEL: 344,185
MASK_PIXEL: 352,40
MASK_PIXEL: 32,18
MASK_PIXEL: 496,40
MASK_PIXEL: 414,388
MASK_PIXEL: 374,312
MASK_PIXEL: 486,495
MASK_PIXEL: 288,49
MASK_PIXEL: 306,335
MASK_PIXEL: 401,135
MASK_PIXEL: 362,275
MASK_PIXEL: 8,122
MASK_PIXEL: 411,330
MASK_PIXEL: 479,333
MASK_PIXEL: 498,65
MASK_PIXEL: 297,117
MASK_PIXEL: 434,258
MASK_PIXEL: 404,143
MASK_PIXEL: 386,321
MASK_PIXEL: 411,268
MASK_PIXEL: 207,494
MASK_PIXEL: 494,133
MASK_PIXEL: 352,432
MASK_PIXEL: 257,84
MASK_PIXEL: 468,78
MASK_PIXEL: 440,117

#ROI col1, row1, col2, row2
#must be set at the end of the configuraion
#ROI: 120, 140, 400, 420 
#ROI: 200, 250, 300, 350
