[PLANE1]
address: udp://ep-ade-gw-05:50003
type: MALTAC
sample: W7R20
SC_ICASN: 10
SC_IBIAS: 80
SC_ITHR: 127
SC_IDB: 110
SC_IRESET: 10
SC_VCASN: 64
SC_VRESET_P: 45
SC_VRESET_D: 65
SC_VCLIP: 127
#MASK_DOUBLE_COLUMNS: 128, 255
#MASK_DOUBLE_COLUMNS: 200, 255
#MASK_DOUBLE_COLUMNS:   0,  60
#MASK_PIXEL: 368,40
#MASK_PIXEL: 448,8
#MASK_PIXEL: 296,18
#MASK_PIXEL: 310,276
#MASK_PIXEL: 316,236
#MASK_PIXEL: 299,183
#MASK_PIXEL: 51,282
#MASK_PIXEL: 311,451
#MASK_PIXEL: 356,306
#MASK_PIXEL: 408,386
#MASK_PIXEL: 96,40
#MASK_PIXEL: 284,138
#MASK_PIXEL: 394,160
#MASK_PIXEL: 375,229
#MASK_PIXEL: 344,185
#MASK_PIXEL: 352,40
#MASK_PIXEL: 32,18
#MASK_PIXEL: 496,40
#MASK_PIXEL: 414,388
#MASK_PIXEL: 374,312
#MASK_PIXEL: 486,495
#MASK_PIXEL: 288,49
#MASK_PIXEL: 306,335
#MASK_PIXEL: 401,135
#MASK_PIXEL: 362,275
#MASK_PIXEL: 8,122
#MASK_PIXEL: 411,330
#MASK_PIXEL: 479,333
#MASK_PIXEL: 498,65
#MASK_PIXEL: 297,117
#MASK_PIXEL: 434,258
#MASK_PIXEL: 404,143
#MASK_PIXEL: 386,321
#MASK_PIXEL: 411,268
#MASK_PIXEL: 207,494
#MASK_PIXEL: 494,133
#MASK_PIXEL: 352,432
#MASK_PIXEL: 257,84
#MASK_PIXEL: 468,78
#MASK_PIXEL: 440,117

#ROI col1, row1, col2, row2
#must be set at the end of the configuraion
ROI: 120, 140, 400, 420 
#ROI: 0, 0, 1, 1
#ROI: 0, 0, 100, 100

##########################################################################
[PLANE2]
address: udp://ep-ade-gw-05:50002
type: MALTAC
sample: W7R10
SC_ICASN: 10
SC_IBIAS: 80
SC_ITHR: 30
SC_IDB: 100
SC_IRESET: 10
SC_VCASN: 64
SC_VRESET_P: 45
SC_VRESET_D: 65
SC_VCLIP: 127
#MASK_DOUBLE_COLUMNS: 128, 255
#MASK_DOUBLE_COLUMNS: 200, 255
#MASK_DOUBLE_COLUMNS:   0,  60
MASK_PIXEL: 243,319
MASK_PIXEL: 277,229
MASK_PIXEL: 355,199
MASK_PIXEL: 221,320
MASK_PIXEL: 217,166
MASK_PIXEL: 510,169
MASK_PIXEL: 455,28
MASK_PIXEL: 435,114
MASK_PIXEL: 263,421
MASK_PIXEL: 472,37
MASK_PIXEL: 405,229
MASK_PIXEL: 300,490
MASK_PIXEL: 345,483
MASK_PIXEL: 315,141
MASK_PIXEL: 406,507
MASK_PIXEL: 293,99
MASK_PIXEL: 341,452
MASK_PIXEL: 386,0
MASK_PIXEL: 471,377
MASK_PIXEL: 460,374
#MASK_PIXEL: 152,335
#MASK_PIXEL: 81,298
#MASK_PIXEL: 179,113
#MASK_PIXEL: 491,192
#MASK_PIXEL: 322,318
#MASK_PIXEL: 362,436
#MASK_PIXEL: 508,202
#MASK_PIXEL: 85,493
#MASK_PIXEL: 158,183
#MASK_PIXEL: 424,56
#MASK_PIXEL: 475,486
#MASK_PIXEL: 324,319
#MASK_PIXEL: 192,1
#MASK_PIXEL: 510,381
#MASK_PIXEL: 443,340
#MASK_PIXEL: 211,202
#MASK_PIXEL: 162,312
#MASK_PIXEL: 404,469
#MASK_PIXEL: 271,60
#MASK_PIXEL: 308,329

#ROI col1, row1, col2, row2
#must be set at the end of the configuraion
#ROI: 120, 140, 400, 420 
#ROI: 0, 0, 20, 20
#ROI: 0, 0, 100, 100
#ROI: 120, 140, 400, 420

##########################################################################
[PLANE3]
address: udp://ep-ade-gw-05:50001
type: MALTAC
sample: W7R8
SC_ICASN: 10
SC_IBIAS: 80
SC_ITHR: 30
SC_IDB: 110
SC_IRESET: 10
SC_VCASN: 64
SC_VRESET_P: 45
SC_VRESET_D: 65
SC_VCLIP: 127

###MASK_DOUBLE_COLUMNS: 128, 255
#MASK_DOUBLE_COLUMNS: 200, 255
#MASK_DOUBLE_COLUMNS:   0,  60
#MASK_PIXEL: 393, 15
#MASK_PIXEL: 273, 258
#MASK_PIXEL: 384, 37
#MASK_PIXEL: 271, 183
#MASK_PIXEL: 176, 120
#MASK_PIXEL: 257, 14
#MASK_PIXEL: 291, 309
#MASK_PIXEL: 358, 15
#MASK_PIXEL: 364, 168
#MASK_PIXEL: 390, 213
#MASK_PIXEL: 251, 510
#MASK_PIXEL: 255, 321
#MASK_PIXEL: 263, 301
#MASK_PIXEL: 273, 306
#MASK_PIXEL: 274, 475
#MASK_PIXEL: 292, 446
#MASK_PIXEL: 330, 445
#MASK_PIXEL: 360, 19
#MASK_PIXEL: 363, 29
#MASK_PIXEL: 268, 500
#MASK_PIXEL: 270, 215
#MASK_PIXEL: 274, 437
#MASK_PIXEL: 287, 36
#MASK_PIXEL: 317, 202
#MASK_PIXEL: 323, 253
#MASK_PIXEL: 331, 123
#MASK_PIXEL: 340, 245
#MASK_PIXEL: 344, 189
#MASK_PIXEL: 348, 259
#MASK_PIXEL: 383, 317
#MASK_PIXEL: 394, 58

ROI: 120, 140, 400, 420
#ROI: 200, 250, 300, 350
MASK_DOUBLE_COLUMN: 136
MASK_DOUBLE_COLUMN: 76
MASK_DOUBLE_COLUMN: 161

##########################################################################
[PLANE4]
address: udp://ep-ade-gw-05:50004
type: MALTAC
sample: W7R6
SC_ICASN: 10
SC_IBIAS: 80
SC_ITHR: 30
SC_IDB: 110
SC_IRESET: 10
SC_VCASN: 64
SC_VRESET_P: 45
SC_VRESET_D: 65
SC_VCLIP: 127 
ROI: 120, 140, 400, 420 
MASK_DOUBLE_COLUMN: 136


