address: 192.168.200.10
type: MALTAC
sample: W4R0
SC_ICASN: 10
SC_IBIAS: 80
SC_ITHR: 127
SC_IDB: 100
SC_IRESET: 10
SC_VCASN: 64
SC_VRESET_P: 45
SC_VRESET_D: 65
SC_VCLIP: 127
MASK_DOUBLE_COLUMNS: 128, 255

