#Time:                SUB(v):   SUB(c):   PWELL(v):   PWELL(c):   SUBH(v):   SUBH(c):   DVDD(v):   DVDD(c):   AVDD(v):   AVDD(c):   DUT1_SUB(v):   DUT1_SUB(c):   DUT2_SUB(v):   DUT2_SUB(c):   DUT_PWELL(v):   DUT_PWELL(c):   DUT_M2(v):   DUT_M2(c):   DUT_DVDD(v):   DUT_DVDD(c):   DUT_AVDD(v):   DUT_AVDD(c):   
2022-07-04_12-05-55   5.999     -0.0003   5.998       0.0008      29.997     -0.0       1.798      0.1216     1.805      1.6798     18.0           2.698563e-05   17.997         0.0011         5.998           -0.0007         1.796        0.2822       1.797          0.0595         1.792          0.0641         
2022-07-04_12-06-06   5.999     -0.0003   5.997       0.0008      29.997     0.0        1.798      0.1216     1.806      1.68       18.0           2.716688e-05   17.997         0.0011         5.998           -0.0006         1.796        0.282        1.797          0.0596         1.792          0.0641         
2022-07-04_12-06-17   5.999     -0.0003   5.997       0.0008      29.996     0.0        1.798      0.1216     1.805      1.6803     18.0           2.724368e-05   17.997         0.0011         5.998           -0.0006         1.796        0.2821       1.795          0.0598         1.792          0.0642         
2022-07-04_12-06-28   6.0       -0.0003   5.997       0.0008      29.996     0.0        1.797      0.1217     1.805      1.6804     18.0           2.711707e-05   17.997         0.001          5.998           -0.0006         1.796        0.2821       1.796          0.0599         1.792          0.0642         
2022-07-04_12-06-39   5.999     -0.0003   5.997       0.0008      29.996     0.0        1.798      0.1227     1.806      1.6808     18.0           2.716938e-05   17.996         0.0011         5.998           -0.0007         1.796        0.2821       1.796          0.0593         1.792          0.0641         
2022-07-04_12-06-50   5.999     -0.0003   5.997       0.0008      29.996     0.0        1.798      0.1215     1.805      1.6797     18.0           2.669558e-05   17.997         0.0011         5.998           -0.0006         1.796        0.282        1.797          0.0595         1.794          0.064          
2022-07-04_12-07-01   5.999     -0.0002   5.996       0.0008      29.997     0.0        1.798      0.1216     1.806      1.6806     18.0           2.673764e-05   17.996         0.0011         5.998           -0.0007         1.796        0.282        1.796          0.0596         1.792          0.0641         
