#Time:                SUB(v):   SUB(c):   PWELL(v):   PWELL(c):   SUBH(v):   SUBH(c):   DVDD(v):   DVDD(c):   AVDD(v):   AVDD(c):   DUT1_SUB(v):   DUT1_SUB(c):   DUT2_SUB(v):   DUT2_SUB(c):   DUT_PWELL(v):   DUT_PWELL(c):   DUT_M2(v):   DUT_M2(c):   DUT_DVDD(v):   DUT_DVDD(c):   DUT_AVDD(v):   DUT_AVDD(c):   
2022-07-04_11-55-12   5.999     -0.0002   5.996       0.0008      29.996     0.0        1.797      0.1216     1.805      1.68       12.0           1.051013e-05   14.998         0.0006         5.998           -0.0002         1.796        0.2837       1.796          0.0594         1.793          0.0639         
2022-07-04_11-55-23   6.001     -0.0002   5.997       0.0008      29.997     0.0        1.797      0.1216     1.805      1.6796     12.0           1.092201e-05   14.998         0.0006         5.998           -0.0002         1.796        0.2837       1.796          0.0594         1.793          0.0639         
2022-07-04_11-55-34   5.999     -0.0003   5.997       0.0008      29.996     0.0001     1.797      0.1216     1.805      1.6799     12.0           1.114644e-05   14.999         0.0007         5.998           -0.0002         1.796        0.2836       1.797          0.0595         1.793          0.0639         
2022-07-04_11-55-45   5.999     -0.0003   5.997       0.0008      29.996     0.0        1.797      0.1216     1.805      1.6805     12.0           1.162888e-05   14.999         0.0007         5.998           -0.0002         1.796        0.2836       1.797          0.0593         1.793          0.064          
