#Time:                SUB(v):   SUB(c):   PWELL(v):   PWELL(c):   SUBH(v):   SUBH(c):   DVDD(v):   DVDD(c):   AVDD(v):   AVDD(c):   DUT1_SUB(v):   DUT1_SUB(c):   DUT2_SUB(v):   DUT2_SUB(c):   DUT_PWELL(v):   DUT_PWELL(c):   DUT_M2(v):   DUT_M2(c):   DUT_DVDD(v):   DUT_DVDD(c):   DUT_AVDD(v):   DUT_AVDD(c):   
2022-08-03_14-18-08   6.0       -0.0003   5.997       0.0008      29.996     0.0        1.798      0.1215     1.807      1.6953     6.0            5.383681e-06   8.999          0.0022         5.998           0.0063          1.725        0.5001       1.796          0.2024         1.792          0.0784         
2022-08-03_14-18-19   6.0       -0.0002   5.998       0.0008      29.996     0.0        1.798      0.1216     1.805      1.6952     6.0            1.002862e-05   8.998          0.0022         5.998           0.0062          1.724        0.5          1.796          0.2023         1.792          0.0784         
2022-08-03_14-18-30   5.999     -0.0003   5.998       0.0008      29.996     -0.0       1.798      0.1216     1.806      1.6967     6.0            1.050054e-05   8.998          0.0022         5.998           0.0063          1.725        0.5          1.796          0.2023         1.791          0.0785         
